Hipotesis.knit
…
Respuesta Se va a proponer la hipótesis nula \(H_0: \mu_1 = \mu_2 \; \; -> \mu_1 - \mu2 =
0\).

# Edad a la que pudieron caminar solos
Infants <- read_csv("~/DropBox/GitHub/ProbEstad/DataSets/ch07_all/EXR_C07_S03_10.csv", show_col_types = FALSE)
Infants

# A tibble: 24 × 2
     Age Group
   <dbl> <dbl>
 1  9.5      1
 2 10.5      1
 3  9        1
 4  9.75     1
 5 10        1
 6 13        1
 7 10        1
 8 13.5      1
 9 10        1
10  9.5      1
# ℹ 14 more rows
…
