Correlación y Regresión
…
Waist <- read_csv("~/Dropbox/GitHub/ProbEstad/DataSets/ch09_all/EXA_C09_S03_01.csv", show_col_types = FALSE)
Waist

# A tibble: 109 × 3
    SUBJ     X     Y
   <dbl> <dbl> <dbl>
 1     1  74.8  25.7
 2     2  72.6  25.9
 3     3  81.8  42.6
 4     4  84.0  42.8
 5     5  74.6  29.8
 6     6  71.8  21.7
 7     7  80.9  29.1
 8     8  83.4  33.0
 9     9  63.5  11.4
10    10  73.2  32.2
# … with 99 more rows
…
